{
    "values": [
        {
            "cntAmount": 1,
            "imgName": "SqCarry",
            "features": [0.5306603773584906, 0.7992623170118558, 0.43044575213497105, 0.4114017480264374, 0.8416548823380108, 0.7022732254702001, 0.729937106918239]

        },
        {
            "cntAmount": 1,
            "imgName": "SqClear",
            "features": [1.0, 0.8331085302778631, 0.394896162982411, 0.3101238867875792, 0.5070628111207488, 0.7906819910903239, 0.4910136616630123]

        },
        {
            "cntAmount": 1,
            "imgName": "SqMove",
            "features": [0.9972528032788984, 0.8688687427181113, 0.4905424709443226, 0.47376826121020565, 0.751550930558335, 0.9306646671029046, 0.6821361533801351]

        },
        {
            "cntAmount": 1,
            "imgName": "SqRepeat2",
            "features": [0.7351751369866395, 0.696961545999284, 0.39920655311558206, 0.23977173886903208, 0.5814909380719051, 0.7105005993918247, 0.5392969541806115]

        },
        {
            "cntAmount": 1,
            "imgName": "SqRepeat3",
            "features": [0.7824675324675324, 0.6646346110428483, 0.4012734386005879, 0.2232472366703906, 0.5972479648878278, 0.7352646436521771, 0.5426388963733362]

        },
        {
            "cntAmount": 2,
            "imgName": "SqCoord2",
            "features": [0.5704918032786885, 1.0, 0.5480145235881894, 0.7266544433035522, 1.0, 0.852275028310521, 1.0]
        },
        {
            "cntAmount": 2,
            "imgName": "SqRotate",
            "features": [0.9201451844499524, 0.9529917773300209, 0.6270939716053662, 0.8245693040055461, 0.9962005342172308, 0.9735745227806978, 0.8090435961165486]
        },
        {
            "cntAmount": 3,
            "imgName": "SqCoord3",
            "features": [0.9444444444444444, 1.0, 0.6376502261595236, 0.7862956257513717, 1.0, 1, 0.9999886921319855]
        },
        {
            "cntAmount": 4,
            "imgName": "SqCoord4",
            "features": [0.754950495049505, 1.0, 0.612266640926289, 0.7707184211089042, 1.0, 0.9804228292631545, 0.9999959422171726]
        }
    ]
}
